[gd_scene load_steps=3 format=2]

[ext_resource path="res://Scripts/Bullet.gd" type="Script" id=1]

[sub_resource type="CircleShape2D" id=1]
radius = 2.65044

[node name="Bullet" type="Node2D"]
script = ExtResource( 1 )

[node name="Sprite" type="Sprite" parent="."]

[node name="Effect" type="Particles2D" parent="."]

[node name="CollisionEffect" type="Particles2D" parent="."]

[node name="Area" type="Area2D" parent="."]
editor/display_folded = true
collision_layer = 6

[node name="Shape" type="CollisionShape2D" parent="Area"]
shape = SubResource( 1 )

[connection signal="body_entered" from="Area" to="." method="_on_Area_body_entered"]
