[gd_resource type="ParticlesMaterial" load_steps=3 format=2]

[sub_resource type="Gradient" id=1]
colors = PoolColorArray( 0.640625, 0.640625, 0.640625, 1, 0.5, 0.5, 0.5, 0 )

[sub_resource type="GradientTexture" id=2]
gradient = SubResource( 1 )

[resource]
gravity = Vector3( 0, 0, 0 )
angular_velocity = 1.5
color_ramp = SubResource( 2 )

