[gd_scene load_steps=2 format=2]

[ext_resource path="res://Tools/ColorGroup.gd" type="Script" id=1]

[node name="Color" type="ColorPickerButton"]
margin_right = 37.0
margin_bottom = 30.0
rect_min_size = Vector2( 37, 30 )
flat = true
color = Color( 1, 0, 0, 1 )
script = ExtResource( 1 )

[connection signal="color_changed" from="." to="." method="_on_Color_color_changed"]
[connection signal="gui_input" from="." to="." method="_on_Color_gui_input"]
